[
  {
  "id":29,
  "sigla":"BA",
  "nome":"Bahia",
  "regiao":{
           "id":2,
           "sigla":"NE",
           "nome":"Nordeste"
           }
  },
  {
  "id":33,
  "sigla":"RJ",
  "nome":"Rio de Janeiro",
  "regiao":{
           "id":3,
           "sigla":"SE",
           "nome":"Sudeste"
           }
  },
  {
  "id":35,
  "sigla":"SP",
  "nome":"São Paulo",
  "regiao":{
           "id":3,
           "sigla":"SE",
           "nome":"Sudeste"
           }
  }
]
